<?xml version="1.0" encoding="UTF-8"?>
<svg width="640px" height="640px" viewBox="0 0 640 640" version="1.1" xmlns="http://www.w3.org/2000/svg" xmlns:xlink="http://www.w3.org/1999/xlink">
    <title>add-director</title>
    <g id="add-director" stroke="none" stroke-width="1" fill="none" fill-rule="evenodd">
        <g transform="translate(92, 80)" fill="#000000" fill-rule="nonzero">
            <path d="M272.432714,124.46462 C273.905632,120.343911 274.985772,116.223202 275.771329,112.102492 C288.733012,34.495801 250.437131,31.7486615 250.437131,31.7486615 C250.437131,31.7486615 244.054484,19.5827579 227.361408,10.3602181 C216.167228,3.68859355 200.554292,-1.41323699 180.031628,0.352781275 C173.354397,0.647117652 167.069945,1.92257529 161.178271,3.98292992 C153.61729,6.53384519 146.74367,10.262106 140.459218,14.5790395 C132.800042,19.4846458 125.533644,25.3713733 119.150997,32.2392221 C109.036957,42.5409953 100.003057,55.9823565 96.0752743,72.6614179 C92.8348536,85.1216578 93.5222156,98.1705706 96.2716634,112.102492 C97.05722,116.223202 98.1373602,120.343911 99.6102787,124.46462 C91.9511026,123.777835 82.9172025,128.192881 91.4601297,158.117079 C97.4499982,180.094195 103.243478,186.177147 107.662233,186.569596 C111.68821,212.667421 131.818096,245.731208 164.909665,257.40655 C178.460515,262.214045 193.386089,262.214045 206.838744,257.308438 C239.43934,245.534983 260.158393,212.569309 264.18437,186.569596 C268.603126,186.177147 274.29841,180.094195 280.582863,158.117079 C289.027595,128.094769 280.09189,123.679723 272.432714,124.46462 Z" id="Path"></path>
            <path d="M359,303.710594 C353.702673,296.739018 346.247176,291.142119 335.75062,288.490956 C289.251861,276.609819 251.385783,250 251.385783,250 L221.85809,343.379845 L216.266467,360.956072 L216.168368,360.75969 L211.361534,375.684755 L195.861948,331.498708 C234.120421,278.082687 188.112155,278.671835 185.56159,278.671835 C183.011025,278.573643 137.002759,278.082687 175.261232,331.498708 L159.663547,375.684755 L154.856713,360.75969 L154.758614,360.956072 L149.166991,343.379845 L119.639298,250 C119.639298,250 81.8713188,276.609819 35.2744609,288.490956 C0.547539427,297.328165 -1.12013759,337.390181 0.351342131,357.224806 C0.547539427,357.224806 2.50951239,384.129199 4.569584,395.912145 C4.569584,395.912145 72.2576513,440 185.659689,440 C215.972171,440 242.949299,436.857881 266.296777,432.242894 C263.844311,423.602067 262.569029,414.470284 262.569029,405.043928 C262.569029,350.744186 305.438138,306.263566 359,303.710594 Z" id="Path"></path>
            <path d="M439.62426,428.87574 L404.87574,428.87574 L404.87574,463.62426 C404.87574,472.411243 397.686391,480 388.5,480 C379.713018,480 372.12426,472.810651 372.12426,463.62426 L372.12426,428.87574 L337.37574,428.87574 C328.588757,428.87574 321,421.686391 321,412.5 C321,403.313609 328.189349,396.12426 337.37574,396.12426 L372.12426,396.12426 L372.12426,361.37574 C372.12426,352.588757 379.313609,345 388.5,345 C397.286982,345 404.87574,352.189349 404.87574,361.37574 L404.87574,396.12426 L439.62426,396.12426 C448.411243,396.12426 456,403.313609 456,412.5 C456,421.686391 448.411243,428.87574 439.62426,428.87574 Z" id="Shape"></path>
        </g>
    </g>
</svg>