<?xml version="1.0" encoding="UTF-8"?>
<svg width="640px" height="640px" viewBox="0 0 640 640" version="1.1" xmlns="http://www.w3.org/2000/svg" xmlns:xlink="http://www.w3.org/1999/xlink">
    <title>add-user</title>
    <g id="add-user" stroke="none" stroke-width="1" fill="none" fill-rule="evenodd">
        <g transform="translate(84, 80)" fill="#000000" fill-rule="nonzero">
            <path d="M144.908756,233 L242.091244,233 C322.177754,233 387,297.796875 387,377.625 L387,418.859375 C387,452.578125 359.626085,480 325.739416,480 L61.158822,480 C27.3739153,479.898438 0,452.578125 0,418.859375 L0,377.625 C0,297.695312 64.9240074,233 144.908756,233 Z" id="Path"></path>
            <circle id="Oval" cx="193" cy="103" r="103"></circle>
            <path d="M455.260355,85.739645 L419.739645,85.739645 L419.739645,121.260355 C419.739645,130.242604 412.390533,138 403,138 C394.017751,138 386.260355,130.650888 386.260355,121.260355 L386.260355,85.739645 L350.739645,85.739645 C341.757396,85.739645 334,78.3905325 334,69 C334,59.6094675 341.349112,52.260355 350.739645,52.260355 L386.260355,52.260355 L386.260355,16.739645 C386.260355,7.75739645 393.609467,0 403,0 C411.982249,0 419.739645,7.34911243 419.739645,16.739645 L419.739645,52.260355 L455.260355,52.260355 C464.242604,52.260355 472,59.6094675 472,69 C472,78.3905325 464.242604,85.739645 455.260355,85.739645 Z" id="Shape"></path>
        </g>
    </g>
</svg>