<?xml version="1.0" encoding="UTF-8"?>
<svg width="640px" height="640px" viewBox="0 0 640 640" version="1.1" xmlns="http://www.w3.org/2000/svg" xmlns:xlink="http://www.w3.org/1999/xlink">
    <title>edit</title>
    <g id="edit" stroke="none" stroke-width="1" fill="none" fill-rule="evenodd">
        <g transform="translate(80, 80)" fill="#000000" fill-rule="nonzero" id="Path">
            <path d="M379.997619,240.000733 C368.938083,240.000733 359.998901,248.961887 359.998901,259.999451 L359.998901,420.000183 C359.998901,431.019436 351.037747,439.998901 340.000183,439.998901 L59.9998169,439.998901 C48.9585906,439.998901 40.0010988,431.019436 40.0010988,420.000183 L40.0010988,139.999817 C40.0010988,128.980564 48.9585906,120.001099 59.9998169,120.001099 L220.000549,120.001099 C231.060086,120.001099 239.999267,111.039944 239.999267,100.002381 C239.999267,88.9611545 231.060086,80 220.000549,80 L59.9998169,80 C26.9200841,80 0,106.920084 0,139.999817 L0,420.000183 C0,453.079916 26.9200841,480 59.9998169,480 L340.000183,480 C373.079916,480 400,453.079916 400,420.000183 L400,259.999451 C400,248.939914 391.057156,240.000733 379.997619,240.000733 Z"></path>
            <path d="M187.070844,222.22891 C185.672122,223.627741 184.731097,225.407403 184.331984,227.326217 L170.194633,298.044031 C169.535549,301.321395 170.575437,304.70129 172.933493,307.081498 C174.833852,308.982003 177.393294,310 180.014985,310 C180.652099,310 181.314844,309.94141 181.973928,309.802259 L252.664346,295.663823 C254.62329,295.261018 256.402816,294.323583 257.783231,292.921091 L416,134.69218 L345.309582,64 L187.070844,222.22891 Z"></path>
            <path d="M465.36148,14.6249725 C445.867864,-4.87499083 414.152291,-4.87499083 394.67332,14.6249725 L367,42.3021044 L437.68816,113 L465.36148,85.3192073 C474.800726,75.9006334 480,63.340093 480,49.9812447 C480,36.6223964 474.800726,24.061857 465.36148,14.6249725 Z"></path>
        </g>
    </g>
</svg>