<?xml version="1.0" encoding="UTF-8"?>
<svg width="640px" height="640px" viewBox="0 0 640 640" version="1.1" xmlns="http://www.w3.org/2000/svg" xmlns:xlink="http://www.w3.org/1999/xlink">
    <title>resources</title>
    <g id="resources" stroke="none" stroke-width="1" fill="none" fill-rule="evenodd">
        <g transform="translate(80, 100)" fill="#000000" fill-rule="nonzero">
            <path d="M124.889218,350.1082 C92.8966032,350.1082 64.4387994,329.632358 54.1051442,299.14903 L53.4062327,296.85199 C50.9691875,288.779432 49.9482631,281.990728 49.9482631,275.198367 L49.9482631,139 L1.4671738,300.765736 C-4.76814785,324.559119 9.44062819,349.226693 33.2804879,355.799592 L342.298491,438.522286 C346.155316,439.52084 350.012141,440 353.810417,440 C373.712949,440 391.899304,426.795678 396.996606,407.336679 L415,350.1082 L124.889218,350.1082 Z" id="Path"></path>
            <path d="M180.001831,140 C202.062714,140 220,122.059873 220,100 C220,77.9401257 202.062714,60 180.001831,60 C157.940948,60 140,77.9401257 140,100 C140,122.059873 157.940948,140 180.001831,140 Z" id="Path"></path>
            <path d="M429.997712,0 L129.998627,0 C102.441338,0 80,22.4412351 80,50.0020595 L80,269.99794 C80,297.558765 102.441338,320 129.998627,320 L429.997712,320 C457.558662,320 480,297.558765 480,269.99794 L480,50.0020595 C480,22.4412351 457.558662,0 429.997712,0 L429.997712,0 Z M129.998627,40.0009149 L429.997712,40.0009149 C435.520156,40.0009149 439.998901,44.4796407 439.998901,50.0020595 L439.998901,191.980957 L376.820384,118.259596 C370.118744,110.400768 360.417846,106.200362 349.999176,105.962326 C339.6391,106.020919 329.919892,110.620493 323.280507,118.581859 L248.998509,207.738893 L224.799364,183.598452 C211.121427,169.920579 188.859531,169.920579 175.199906,183.598452 L120.001099,238.778695 L120.001099,50.0020595 C120.001099,44.4796407 124.479845,40.0009149 129.998627,40.0009149 Z" id="Shape"></path>
        </g>
    </g>
</svg>