<?xml version="1.0" encoding="UTF-8"?>
<svg width="640px" height="640px" viewBox="0 0 640 640" version="1.1" xmlns="http://www.w3.org/2000/svg" xmlns:xlink="http://www.w3.org/1999/xlink">
    <title>user-logs</title>
    <g id="user-logs" stroke="none" stroke-width="1" fill="none" fill-rule="evenodd">
        <g transform="translate(98, 80)" fill="#000000" fill-rule="nonzero" id="Shape">
            <path d="M316.499248,284 L127.500752,284 C110.124745,283.949813 96.0511751,269.872045 96.0004991,252.490856 C95.8882318,212.720033 114.722484,175.27433 146.715599,151.661597 C117.179868,112.719815 122.19611,57.6761232 158.284194,24.7183385 C194.372277,-8.23944617 249.627723,-8.23944617 285.715806,24.7183385 C321.80389,57.6761232 326.820132,112.719815 297.284401,151.661597 C329.277516,175.27433 348.111768,212.720033 347.999501,252.490856 C347.948825,269.872045 333.875255,283.949813 316.499248,284 Z"></path>
            <path d="M411.357143,415.089983 L31.6428571,415.089983 C14.1669897,415.089983 0,407.845205 0,398.908319 C0,389.971433 14.1669897,382.726655 31.6428571,382.726655 L411.357143,382.726655 C428.83301,382.726655 443,389.971433 443,398.908319 C443,407.845205 428.83301,415.089983 411.357143,415.089983 Z M411.357143,480 L31.6428571,480 C14.1669897,480 0,472.755222 0,463.818336 C0,454.88145 14.1669897,447.636672 31.6428571,447.636672 L411.357143,447.636672 C428.83301,447.636672 443,454.88145 443,463.818336 C443,472.755222 428.83301,480 411.357143,480 Z M418.388889,350.363328 L24.6111111,350.363328 C11.0187698,350.363328 0,343.11855 0,334.181664 C0,325.244778 11.0187698,318 24.6111111,318 L418.388889,318 C431.98123,318 443,325.244778 443,334.181664 C443,343.11855 431.98123,350.363328 418.388889,350.363328 Z"></path>
        </g>
    </g>
</svg>